992
992
16 -72 -72 808
-72 912
-8 32 -48 880
40 -64 56 -8 8 -24 744
-16 -16 944
272 -72 632
24 -56 24 -48 -56 -48 688
-48 32 -56 -24 -72 -16 -56 -56 -72 488
992
112 -48 -24 -56 -8 -64 -24 600
992
992
88 -48 -16 -24 -56 104 -64 536
-40 944
40 -24 72 -16 -48 -24 -32 680
-16 -32 152 -32 56 -56 8 -24 552
992
104 -8 -24 -32 792
