-40 -40 -40 -32 24 -16 -8 736
-8 -8 8 -8 8 -8 -8 -8 -8 -8 -8 -8 -8 -8 -8 -16 -24 696
-120 -24 -32 -40 -104 -48 576
-72 -64 -56 -48 40 -32 -24 -16 -8 -8 -16 -24 -32 -40 -48 -56 -64 -72 128
-80 -80 -80 -80 -168 -80 -80 -80 -80 -96 8
-992
992
-48 144 -160 120 -56 424
-56 -40 8 -48 64 -72 88 -16 -8 520
-24 32 -40 -48 -56 -64 -72 600
