-72 88 -56 -64 -24 -24 -16 592
152 -8 -56 -16 -40 -40 632
88 -32 24 -32 -16 -64 -24 -72 -40 528
-32 80 -40 -56 -32 -32 -72 -32 552
40 -64 8 -40 -56 -24 -16 688
72 -16 -56 -64 -64 -56 -8 600
88 -64 -32 -40 -32 -16 -56 -24 576
96 -16 -80 -80 688
96 -40 -40 -40 744
24 -64 -16 -64 -72 -8 696
-48 -16 -24 -48 -32 784
32 -40 -64 -8 -24 -80 696
144 -16 24 -24 -56 -64 -80 -32 488
40 -56 -72 -48 -80 656
-48 -72 -64 -80 -16 672
